<svg width="14" height="15" viewBox="0 0 14 15" fill="none" xmlns="http://www.w3.org/2000/svg">
<g clip-path="url(#clip0_422_481)">
<path d="M8.69489 3.68363C8.71405 3.66051 8.80363 3.58498 9.1554 3.58498L10.3088 3.58453C10.684 3.58453 10.9891 3.25814 10.9891 2.85691V0.701295C10.9891 0.300751 10.6844 -0.0256348 10.3098 -0.0263214L8.59665 -0.0292969C7.53928 -0.0292969 6.64042 0.343667 5.99723 1.04943C5.35692 1.75198 5.01842 2.73274 5.01842 3.88551V5.04811H3.70784C3.33263 5.04811 3.0274 5.3745 3.0274 5.77573V8.09728C3.0274 8.49851 3.33263 8.8249 3.70784 8.8249H5.01842V14.2431C5.01842 14.6443 5.32364 14.9707 5.69885 14.9707H7.94521C8.32043 14.9707 8.62565 14.6443 8.62565 14.2431V8.82501H10.2276C10.6029 8.82501 10.908 8.49851 10.908 8.09751L10.9088 5.77584C10.9088 5.51229 10.7747 5.26841 10.5588 5.13944C10.4587 5.0797 10.3423 5.04811 10.2222 5.04811H8.62565V4.12961C8.62565 3.83023 8.66332 3.72186 8.69489 3.68363V3.68363Z" fill="#6346BF"/>
</g>
<defs>
<clipPath id="clip0_422_481">
<rect width="14" height="15" fill="white"/>
</clipPath>
</defs>
</svg>
