<svg width="90" height="72" viewBox="0 0 90 72" fill="none" xmlns="http://www.w3.org/2000/svg">
<g clip-path="url(#clip0_476_7)">
<path d="M60.5751 28.1117C60.5751 28.1117 70.9452 38.8418 70.9452 55.2886C70.9452 55.2886 61.9195 58.5836 48.1785 58.5836C42.7769 58.5836 38.1024 58.0745 34.4207 57.4557C28.7364 56.5022 25.4119 55.2886 25.4119 55.2886C25.4119 38.8418 35.782 28.1117 35.782 28.1117V21.4037L30.1905 16.8121L25.4119 12.8885L34.5374 4.70801C35.6554 3.70532 37.035 3.15826 38.4371 3.06404C39.091 3.02045 39.7477 3.07529 40.3876 3.22858C41.4212 3.47609 42.4042 3.98095 43.2396 4.74036L44.2128 5.62633C46.46 7.67391 49.897 7.67391 52.1457 5.62633L53.1189 4.74036C53.9542 3.98095 54.9372 3.47609 55.9709 3.22858C57.9833 2.74622 60.1814 3.23842 61.8197 4.70801L70.9452 12.8885L60.5751 21.4037V28.1117Z" fill="#80B4FB"/>
<path d="M38.9813 16.5241V28.763C38.9813 28.763 34.7483 41.6223 34.7483 47.9113C34.7483 50.4145 34.5993 54.0217 34.4207 57.4559C28.7364 56.5024 25.4119 55.2887 25.4119 55.2887C25.4119 38.842 35.782 28.1119 35.782 28.1119V14.8589H37.3161C38.2358 14.8587 38.9813 15.6044 38.9813 16.5241V16.5241Z" fill="#61A2F9"/>
<path d="M38.438 3.06396C35.2598 6.02424 31.5753 12.2528 30.1915 16.812L25.4128 12.8884L34.5384 4.70794C35.6564 3.70524 37.036 3.15819 38.438 3.06396V3.06396Z" fill="#61A2F9"/>
<path d="M55.9708 3.22852C55.6347 4.81061 52.9993 16.4422 48.1785 18.1311C43.3577 16.4422 40.7237 4.81061 40.3876 3.22852C41.4212 3.47603 42.4042 3.98089 43.2396 4.74029L44.2127 5.62627C46.46 7.67385 49.897 7.67385 52.1457 5.62627L53.1189 4.74029C53.9542 3.98089 54.9372 3.47603 55.9708 3.22852V3.22852Z" fill="#61A2F9"/>
<path d="M39.667 44.0063C28.4491 43.4204 17.2312 43.4204 6.01329 44.0063C3.73367 44.1254 1.86145 45.8543 1.57218 48.1186C0.878447 53.5486 0.878447 58.9785 1.57218 64.4086C1.86145 66.6729 3.73367 68.4019 6.01329 68.5209C17.2312 69.1067 28.4491 69.1067 39.667 68.5209C41.9466 68.4018 43.8188 66.6729 44.1081 64.4086C44.8018 58.9785 44.8018 53.5486 44.1081 48.1186C43.8187 45.8543 41.9465 44.1254 39.667 44.0063Z" fill="#DB5B6F"/>
<path d="M8.05951 68.6211C7.37745 68.5902 6.6954 68.5565 6.01334 68.5213C3.73372 68.4018 1.86193 66.6734 1.57223 64.4079C0.878919 58.9781 0.878919 53.5484 1.57223 48.1186C1.86193 45.8545 3.73372 44.1247 6.01334 44.0066C6.6954 43.9714 7.37745 43.9377 8.05951 43.9067C6.61242 44.6225 5.56051 46.026 5.34534 47.7122C4.61688 53.4134 4.61688 59.1145 5.34534 64.8143C5.56051 66.5004 6.61242 67.9039 8.05951 68.6211V68.6211Z" fill="#D54653"/>
<path d="M44.1073 55.3146C43.8184 57.5787 41.9462 59.3072 39.6666 59.4259C28.4492 60.0131 17.2318 60.0131 6.0127 59.4259C3.73293 59.3072 1.86086 57.5787 1.57187 55.3146C1.4197 54.1226 1.30171 52.9305 1.21438 51.7385C1.00456 54.6951 0.999921 57.6517 1.20144 60.6084C2.05029 61.8947 3.47797 62.7559 5.10296 62.8406C16.9284 63.4594 28.7522 63.4594 40.5762 62.8406C42.2019 62.7559 43.6301 61.894 44.4787 60.6068C44.6802 57.6485 44.6754 54.6903 44.4652 51.7322C44.3794 52.9263 44.2612 54.1205 44.1073 55.3146Z" fill="#D54653"/>
<path d="M28.5198 63.1193C25.1295 63.3048 21.7393 63.3048 18.349 63.1193C16.8652 63.0381 15.6823 61.8637 15.5629 60.3826C15.3991 58.3497 15.3991 56.3167 15.5629 54.2837C15.6823 52.8026 16.8652 51.6282 18.3488 51.5471C21.7391 51.3616 25.1293 51.3616 28.5196 51.5471C30.0033 51.6282 31.1863 52.8026 31.3055 54.2837C31.4694 56.3167 31.4694 58.3497 31.3055 60.3826C31.1864 61.8637 30.0036 63.0381 28.5198 63.1193V63.1193Z" fill="#FFD064"/>
<path d="M23.4345 59.5111C22.0472 59.5111 20.6433 59.4781 19.2512 59.413C19.1669 58.0301 19.1669 56.6365 19.2512 55.2537C20.6433 55.1886 22.0472 55.1555 23.4345 55.1555C24.8217 55.1555 26.2256 55.1886 27.6176 55.2537C27.7018 56.6365 27.7018 58.0301 27.6176 59.413C26.2256 59.4781 24.8217 59.5111 23.4345 59.5111Z" fill="#DB5B6F"/>
<path d="M66.6854 35.0262C64.5361 31.0979 62.3995 28.5594 61.6298 27.7V21.9021L71.6146 13.7035C71.8523 13.5082 71.993 13.2189 71.9996 12.9112C72.0064 12.6035 71.8783 12.3083 71.6492 12.103L64.0945 5.33162C63.6608 4.94292 62.9939 4.97948 62.6051 5.41304C62.2163 5.84675 62.2528 6.51362 62.6865 6.90246L69.3258 12.8534L61.6303 19.1723V14.8589C61.6303 14.2764 61.1582 13.8042 60.5755 13.8042C59.9929 13.8042 59.5208 14.2764 59.5208 14.8589L59.5202 27.2199C51.9893 28.4388 44.3674 28.4386 36.8365 27.2196V14.8589C36.8365 14.2764 36.3644 13.8042 35.7818 13.8042C35.1992 13.8042 34.7271 14.2764 34.7271 14.8589V19.1728L27.0309 12.8534L35.2414 5.4932C36.4492 4.41007 38.0091 3.95991 39.5102 4.13823C39.8193 5.46606 40.5292 8.25125 41.6194 11.0259C43.4107 15.5853 45.5002 18.311 47.8296 19.127C47.9426 19.1666 48.0604 19.1864 48.1783 19.1864C48.2961 19.1864 48.4141 19.1666 48.5269 19.127C50.8563 18.311 52.9459 15.5853 54.7377 11.026C55.826 8.25659 56.5351 5.47872 56.8454 4.14765C57.7747 4.03655 58.7344 4.16087 59.6266 4.54282C60.1625 4.77219 60.7821 4.5237 61.0113 3.98832C61.2407 3.4528 60.9924 2.8329 60.457 2.60367C57.7474 1.44361 54.5886 1.97646 52.4087 3.96061L51.4354 4.84658C49.5784 6.53753 46.7788 6.53753 44.9225 4.84658L43.9493 3.96061C41.0754 1.34432 36.7263 1.32815 33.8331 3.92278L24.7074 12.1033C24.4782 12.3086 24.3502 12.6039 24.357 12.9115C24.3636 13.2192 24.5044 13.5084 24.742 13.7038L34.7268 21.9024V27.6995C34.0353 28.469 32.2583 30.5704 30.3643 33.7928C28.7603 32.9381 27.0638 32.0942 25.3455 31.2398C23.8438 30.4931 22.3314 29.741 20.8795 28.9772C22.2984 27.2004 23.393 25.1891 23.8727 22.8311C24.6056 19.2277 23.5335 16.009 20.9311 14.0001C18.464 12.0957 15.0665 11.6711 12.4765 12.9437C11.0882 13.6257 8.75924 15.396 8.75924 19.5873C8.75924 22.2405 10.4441 24.7486 13.9105 27.2552C14.9948 28.0392 16.2138 28.7986 17.5112 29.5396C15.9027 31.1218 14.0567 32.5301 12.3127 33.8602C8.558 36.724 4.99569 39.4432 4.90358 43.1069C2.60652 43.6576 0.834154 45.5732 0.52561 47.9858C-0.175854 53.4789 -0.175854 59.0492 0.52561 64.5425C0.879999 67.3123 3.16454 69.429 5.95803 69.5754C11.5591 69.8675 17.1995 70.0135 22.84 70.0135C28.4804 70.0135 34.1212 69.8674 39.7224 69.5754C42.5166 69.4289 44.8004 67.312 45.1531 64.5425C45.3632 62.9003 45.5091 61.2509 45.5936 59.599C46.4517 59.6247 47.317 59.6385 48.1783 59.6385C61.9474 59.6385 70.9309 56.4168 71.3066 56.2797C71.7227 56.1276 71.9996 55.7319 71.9996 55.2889C71.9999 46.5695 69.11 39.4573 66.6854 35.0262V35.0262ZM43.5024 6.40561C46.1677 8.83416 50.189 8.83416 52.8559 6.40589L53.8291 5.52006C54.0268 5.34006 54.2359 5.17678 54.454 5.03025C54.0877 6.42755 53.5257 8.34364 52.7749 10.2541C51.0167 14.728 49.3567 16.4044 48.1787 16.9882C47.0007 16.4044 45.3407 14.728 43.583 10.2541C42.8323 8.34336 42.2702 6.42601 41.9039 5.02814C42.121 5.17482 42.3303 5.33851 42.5297 5.51992L43.5024 6.40561ZM10.8693 19.5868C10.8693 17.2948 11.7468 15.6521 13.4072 14.8363C14.1017 14.4951 14.8952 14.3296 15.712 14.3296C17.077 14.3296 18.5063 14.7921 19.6426 15.6692C20.7836 16.5499 22.5817 18.5967 21.8061 22.4099C21.381 24.5003 20.3409 26.3187 18.9835 27.9491C14.425 25.3945 10.8693 22.6825 10.8693 19.5868V19.5868ZM6.068 45.0602C7.94809 44.9626 9.82888 44.881 11.6582 44.8177C12.2404 44.7975 12.6959 44.3093 12.6757 43.7271C12.6554 43.1448 12.1709 42.6911 11.5851 42.7095C10.0933 42.7611 8.56728 42.8254 7.03554 42.8999C7.30723 40.3329 10.245 38.0899 13.5924 35.5369C15.5589 34.037 17.6464 32.4448 19.4407 30.6009C21.057 31.4623 22.7445 32.3016 24.4066 33.1281C26.0703 33.9554 27.7475 34.7895 29.3381 35.6382C28.2932 37.6235 27.2657 39.9337 26.4151 42.5365C22.867 42.497 19.3248 42.5123 15.809 42.5896C15.2266 42.6024 14.7649 43.0847 14.7777 43.6672C14.7905 44.2497 15.2704 44.7162 15.8552 44.6984C23.7178 44.5259 31.7111 44.6477 39.613 45.0602C41.3872 45.1521 42.8374 46.4946 43.0613 48.2527C43.2094 49.4103 43.3233 50.5715 43.4068 51.7346C43.3216 52.9018 43.2058 54.0606 43.0613 55.1818C42.8375 56.9385 41.3869 58.2803 39.6113 58.3724C37.2231 58.4971 34.824 58.5943 32.4587 58.6653C32.5093 57.1759 32.4766 55.6803 32.3572 54.1993C32.1959 52.1962 30.5709 50.6032 28.5776 50.4943C25.1646 50.3075 21.7037 50.3074 18.2916 50.4943C16.2982 50.6032 14.6733 52.1962 14.5119 54.1993C14.3916 55.6915 14.3591 57.1987 14.4115 58.6995C11.6339 58.6255 8.83364 58.5172 6.068 58.3724C4.29296 58.2804 2.84222 56.9386 2.61861 55.1813C2.47714 54.0734 2.36112 52.9184 2.2728 51.7473C2.35634 50.5799 2.47025 49.4145 2.61861 48.2527C2.84334 46.4949 4.29408 45.1521 6.068 45.0602V45.0602ZM31.1943 36.6614C34.6112 38.6167 37.3721 40.6622 38.2998 42.886C35.0841 42.7324 31.8565 42.626 28.6299 42.5682C29.3903 40.3663 30.285 38.3867 31.1943 36.6614V36.6614ZM30.2545 60.298C30.1774 61.2545 29.4069 62.0146 28.4623 62.0663C28.4621 62.0663 28.4621 62.0663 28.4621 62.0663C25.126 62.2489 21.7431 62.2489 18.4066 62.0663C17.462 62.0146 16.6915 61.2545 16.6144 60.298C16.4559 58.3309 16.4559 56.3359 16.6144 54.3688C16.6915 53.4123 17.462 52.6522 18.4068 52.6005C20.0748 52.5092 21.7546 52.4635 23.4345 52.4635C25.1143 52.4635 26.7941 52.5092 28.4623 52.6005C29.4069 52.6522 30.1774 53.4123 30.2545 54.3688C30.413 56.3359 30.413 58.3309 30.2545 60.298ZM39.6127 67.4684C28.4834 68.0486 17.1976 68.0486 6.0687 67.4684C4.29451 67.3753 2.84334 66.0321 2.61861 64.2746C2.38601 62.4529 2.23497 60.6223 2.16185 58.7891C3.14429 59.774 4.47986 60.4024 5.95831 60.479C8.80762 60.6284 11.6942 60.7392 14.5553 60.8136C14.8646 62.6513 16.4145 64.07 18.2915 64.1727C19.9979 64.2661 21.7162 64.3127 23.4345 64.3127C25.1527 64.3127 26.8712 64.2661 28.5773 64.1727C30.4658 64.0693 32.0228 62.6339 32.3186 60.78C34.7649 60.7081 37.249 60.6083 39.7207 60.479C41.2 60.4024 42.5362 59.7736 43.5187 58.7884C43.4455 60.6219 43.2942 62.4529 43.0611 64.2751C42.8372 66.0324 41.3869 67.3753 39.6127 67.4684V67.4684ZM66.4288 55.4733C66.2119 52.3025 65.8109 49.1432 65.2329 46.0643C65.1255 45.4917 64.5748 45.115 64.0017 45.2223C63.4292 45.3297 63.0522 45.881 63.1598 46.4535C63.7418 49.5546 64.138 52.74 64.3439 55.9352C63.5317 56.1016 62.6109 56.2744 61.5917 56.4426C61.4642 52.2009 61.0115 47.9774 60.2411 43.8701C60.1337 43.2976 59.5824 42.9209 59.01 43.0279C58.4375 43.1353 58.0605 43.6865 58.1679 44.259C58.9334 48.3411 59.3776 52.5418 59.4911 56.7599C56.3462 57.1915 52.5056 57.5287 48.1784 57.5287C47.3418 57.5287 46.5012 57.5155 45.6676 57.4906C45.7272 54.3163 45.5566 51.1383 45.1534 47.9861C44.8372 45.5024 42.9689 43.546 40.5731 43.0624C39.7988 39.8394 36.4897 37.2504 32.2246 34.8163C33.9103 31.9631 35.4875 30.0384 36.1761 29.2488C40.1599 29.9117 44.1694 30.2442 48.1789 30.2442C52.1882 30.2442 56.1974 29.9119 60.1811 29.2489C60.9725 30.154 62.9316 32.547 64.8691 36.1023C67.0891 40.1758 69.7223 46.6324 69.8825 54.5305C69.1965 54.7469 68.0202 55.0933 66.4288 55.4733V55.4733Z" fill="black"/>
<path d="M27.6669 54.2001C26.2581 54.1342 24.8342 54.1008 23.4345 54.1008C22.0347 54.1008 20.6107 54.1342 19.2018 54.2001C18.6638 54.2253 18.2312 54.6518 18.1983 55.1896C18.1118 56.6119 18.1118 58.0545 18.1983 59.477C18.2311 60.0148 18.6638 60.4413 19.2018 60.4665C20.6095 60.5323 22.0337 60.5658 23.4345 60.5658C24.8352 60.5658 26.2592 60.5324 27.6669 60.4665C28.205 60.4413 28.6376 60.0148 28.6705 59.477C28.757 58.0545 28.757 56.6121 28.6705 55.1896C28.6377 54.652 28.2051 54.2253 27.6669 54.2001ZM26.609 58.3991C24.489 58.4751 22.3798 58.4751 20.2601 58.3991C20.2374 57.6896 20.2374 56.9771 20.2601 56.2677C22.3812 56.1914 24.4878 56.1914 26.609 56.2677C26.6316 56.9771 26.6316 57.6896 26.609 58.3991V58.3991Z" fill="black"/>
</g>
<path d="M84.9735 26.4019C84.6807 26.4019 84.3846 26.4609 84.0934 26.5775L79.9509 28.2344C78.8124 28.6899 77.9537 29.9581 77.9537 31.1844V40.4102C77.9537 41.0897 78.5047 41.6406 79.1842 41.6406H85.7741C86.4536 41.6406 87.0046 41.0897 87.0046 40.4102V28.5484C87.0046 27.3246 86.1314 26.4019 84.9735 26.4019V26.4019Z" fill="#DD4A4A"/>
<path d="M87.0047 40.4102V28.5484C87.0047 27.3246 86.1316 26.4019 84.9736 26.4019C84.6808 26.4019 84.3847 26.4609 84.0935 26.5775L82.4792 27.2232V41.6406H85.7742C86.4537 41.6406 87.0047 41.0897 87.0047 40.4102V40.4102Z" fill="#CF0050"/>
<path d="M87.0921 39.1797H77.8663C77.1868 39.1797 76.6359 39.7306 76.6359 40.4102V54.9078C76.6359 55.5873 77.1868 56.1383 77.8663 56.1383H87.0921C87.7716 56.1383 88.3226 55.5873 88.3226 54.9078V40.4102C88.3226 39.7306 87.7716 39.1797 87.0921 39.1797V39.1797Z" fill="#BCE9F8"/>
<path d="M87.0922 39.1797H82.4792V56.1383H87.0922C87.7717 56.1383 88.3227 55.5873 88.3227 54.9078V40.4102C88.3227 39.7306 87.7717 39.1797 87.0922 39.1797V39.1797Z" fill="#9CE0F6"/>
<path d="M88.4101 53.6772H76.5483C75.8688 53.6772 75.3179 54.2282 75.3179 54.9077V65.4514C75.3179 66.8566 76.4611 67.9998 77.8663 67.9998H87.0921C88.4973 67.9998 89.6405 66.8566 89.6405 65.4514V54.9077C89.6405 54.2282 89.0896 53.6772 88.4101 53.6772V53.6772Z" fill="#549499"/>
<path d="M88.4101 53.6772H82.4792V67.9999H87.0922C88.4973 67.9999 89.6406 66.8567 89.6406 65.4515V54.9077C89.6406 54.2282 89.0897 53.6772 88.4101 53.6772V53.6772Z" fill="#427579"/>
<defs>
<clipPath id="clip0_476_7">
<rect width="72" height="72" fill="white"/>
</clipPath>
</defs>
</svg>
