<svg width="77" height="77" viewBox="0 0 77 77" fill="none" xmlns="http://www.w3.org/2000/svg">
<path d="M38.5 77C59.763 77 77 59.763 77 38.5C77 17.237 59.763 0 38.5 0C17.237 0 0 17.237 0 38.5C0 59.763 17.237 77 38.5 77Z" fill="#FD9827"/>
<path d="M77 38.5C77 34.0388 76.2386 29.756 74.8431 25.7713L58.9513 9.87964C58.9513 9.87964 48.1506 12.9583 46.4456 17.4956L39.4972 10.8062L35.4419 16.0929L30.1389 10.8062L26.6441 16.0929L20.8899 10.8062H16.0432L21.2051 28.9887C21.2051 31.9397 19.4372 36.363 19.4372 36.363L24.3861 41.3347L24.8166 67.9546L33.5455 76.6836C35.1676 76.8919 36.8212 77 38.5 77C59.763 77 77 59.763 77 38.5Z" fill="#EA7B0C"/>
<path d="M22.7886 37.1995H32.7521V50.2834H22.7886V37.1995Z" fill="#FFE780"/>
<path d="M27.7712 37.1991H32.7521V50.2831H27.7712V37.1991Z" fill="#FBBE2C"/>
<path d="M27.7704 68.9251C25.019 68.9251 22.7886 66.6946 22.7886 63.9432V45.9224H32.7521V63.9434C32.7523 66.6948 30.5218 68.9251 27.7704 68.9251Z" fill="#605553"/>
<path d="M48.9878 37.1995H58.9513V50.2834H48.9878V37.1995Z" fill="#FFE780"/>
<path d="M53.9692 37.1991H58.9516V50.2831H53.9692V37.1991Z" fill="#FBBE2C"/>
<path d="M53.9696 68.9251C51.2182 68.9251 48.9878 66.6946 48.9878 63.9432V45.9224H58.9513V63.9434C58.9513 66.6948 56.721 68.9251 53.9696 68.9251Z" fill="#605553"/>
<path d="M58.9516 45.9218V63.9431C58.9516 66.6952 56.7213 68.9255 53.9692 68.9255V45.9218H58.9516Z" fill="#4C403F"/>
<path d="M58.9514 37.9514H50.6023C47.5511 37.9514 45.0778 35.478 45.0778 32.427V21.8581C45.0778 15.2424 50.4409 9.87952 57.0564 9.87952H58.9514V37.9514Z" fill="#EEF9FF"/>
<path d="M34.6508 10.8059V23.4387C34.6508 24.6846 33.6408 25.6946 32.3949 25.6946C31.1491 25.6946 30.1391 24.6846 30.1391 23.4387V10.8059H25.4018V23.4387C25.4018 24.6846 24.3917 25.6946 23.1459 25.6946C21.9001 25.6946 20.89 24.6846 20.89 23.4387V10.8059H16.0434V28.9884C16.0434 34.3538 20.3928 38.7034 25.7583 38.7034H29.7825C35.1478 38.7034 39.4974 34.3539 39.4974 28.9884V10.8059H34.6508Z" fill="#EEF9FF"/>
<path d="M39.4971 10.8055V28.9893C39.4971 33.3175 36.6653 36.9855 32.7521 38.2398C31.8167 38.5406 30.8181 38.703 29.7819 38.703H27.7712V10.8055H30.1398V23.4384C30.1398 24.6851 31.149 25.6942 32.3942 25.6942H32.3957C33.6409 25.6942 34.6516 24.6851 34.6516 23.4384V10.8055H39.4971Z" fill="#D2EBFF"/>
<path d="M32.7521 45.9218V63.9431C32.7521 66.6952 30.5218 68.9255 27.7712 68.9255V45.9218H32.7521Z" fill="#4C403F"/>
<path d="M58.9516 9.87915V37.9511H53.9692V10.2822C54.9542 10.019 55.9889 9.87915 57.0567 9.87915H58.9516Z" fill="#D2EBFF"/>
</svg>
